; Engine configuration file.
; It's best edited using the editor UI and not directly,
; since the parameters that go here are not all obvious.
;
; Format:
;   [section] ; section goes between []
;   param=value ; assign values to parameters

config_version=5

[application]

config/name="LudumDare"
run/main_scene="res://home.tscn"
config/features=PackedStringArray("4.1", "GL Compatibility")
config/icon="res://icon.svg"

[autoload]

DialogueManager="*res://addons/dialogue_manager/dialogue_manager.gd"
Events="*res://events/events.gd"

[display]

window/size/viewport_width=1024
window/size/viewport_height=1024
window/stretch/mode="canvas_items"

[editor_plugins]

enabled=PackedStringArray("res://addons/dialogue_manager/plugin.cfg")

[input]

up={
"deadzone": 0.5,
"events": [null, Object(InputEventKey,"resource_local_to_scene":false,"resource_name":"","device":-1,"window_id":0,"alt_pressed":false,"shift_pressed":false,"ctrl_pressed":false,"meta_pressed":false,"pressed":false,"keycode":0,"physical_keycode":4194320,"key_label":0,"unicode":0,"echo":false,"script":null)
]
}

[internationalization]

locale/translations_pot_files=PackedStringArray("res://dialogue/1.dialogue", "res://2.dialogue")

[rendering]

renderer/rendering_method="gl_compatibility"
renderer/rendering_method.mobile="gl_compatibility"
